{
  "version": "2.1",
  "licenses": [
    {
      "id": "GPL-3.0-or-later",
      "name": "GNU General Public License v3.0 or later",
      "url": "https://opensource.org/license/gpl-3-0/"
    },
    {
      "id": "MIT",
      "name": "MIT License",
      "url": "https://opensource.org/licenses/MIT"
    },
    {
      "id": "Apache-2.0",
      "name": "Apache License 2.0",
      "url": "https://opensource.org/licenses/Apache-2.0"
    }
  ],
  "dependencies": [
    {
      "name": "Component A",
      "version": "1.2",
      "package_manager": "bundler",
      "path": "Gemfile.lock",
      "licenses": ["GPL-3.0-or-later"]
    },
    {
      "name": "Component B",
      "version": "2.1",
      "package_manager": "bundler",
      "path": "Gemfile.lock",
      "licenses": ["MIT"]
    },
    {
      "name": "Component C",
      "version": "3.1",
      "package_manager": "bundler",
      "path": "Gemfile.lock",
      "licenses": ["GPL-3.0-or-later"]
    },
    {
      "name": "Component D",
      "version": "4.1",
      "package_manager": "bundler",
      "path": "Gemfile.lock",
      "licenses": ["Apache-2.0"]
    }
  ]
}
